…
lda_df
```

    ## # A tibble: 160 x 4
    ##    arm     subject_id  week observation
    ##    <fct>   <chr>      <dbl>       <dbl>
    ##  1 control 01             1        0.2 
    ##  2 control 01             2       -1.31
    ##  3 control 01             3        0.66
    ##  4 control 01             4        1.96
    ##  5 control 01             5        0.23
    ##  6 control 01             6        1.09
    ##  7 control 01             7        0.05
    ##  8 control 01             8        1.94
    ##  9 control 02             1        1.13
    ## 10 control 02             2       -0.88
    ## # … with 150 more rows
…
sim_results 
```

    ## # A tibble: 35,000 x 3
    ##       mu estimate p.value
    ##    <int>    <dbl>   <dbl>
    ##  1     0    0.520   0.549
    ##  2     0    1.11    0.188
    ##  3     0    1.01    0.220
    ##  4     0   -0.835   0.309
    ##  5     0   -0.892   0.365
    ##  6     0    0.557   0.503
    ##  7     0    1.04    0.238
    ##  8     0    1.40    0.144
    ##  9     0    1.15    0.180
    ## 10     0   -0.500   0.634
    ## # … with 34,990 more rows
…
